Warning: Permanently added '10.128.0.5' (ECDSA) to the list of known hosts.
Warning: Permanently added '10.128.0.7' (ECDSA) to the list of known hosts.
Warning: Permanently added '10.128.0.11' (ECDSA) to the list of known hosts.
Warning: Permanently added '10.128.0.12' (ECDSA) to the list of known hosts.
Warning: Permanently added '10.128.0.13' (ECDSA) to the list of known hosts.
Warning: Permanently added '10.128.0.16' (ECDSA) to the list of known hosts.
Warning: Permanently added '10.128.0.19' (ECDSA) to the list of known hosts.
Warning: Permanently added '10.128.0.18' (ECDSA) to the list of known hosts.
Warning: Permanently added '10.128.0.54' (ECDSA) to the list of known hosts.
Warning: Permanently added '10.128.0.22' (ECDSA) to the list of known hosts.
Warning: Permanently added '10.128.0.21' (ECDSA) to the list of known hosts.
Warning: Permanently added '10.128.0.55' (ECDSA) to the list of known hosts.
Warning: Permanently added '10.128.0.20' (ECDSA) to the list of known hosts.
Warning: Permanently added '10.128.0.57' (ECDSA) to the list of known hosts.
Warning: Permanently added '10.128.0.62' (ECDSA) to the list of known hosts.
